<svg xmlns="http://www.w3.org/2000/svg" viewBox="0 0 69 69">
  <defs>
    <style>.arrow-circle-cls-2{fill:#003e51;}</style>
  </defs>
  <title>arrow2Asset 5</title>
  <g id="Layer_2" data-name="Layer 2">
    <g id="Layer_1-2" data-name="Layer 1">
      <g id="Rectangle_358" data-name="Rectangle 358">
        <path style="fill: none;" d="M 34 0 h 0.4 a 34 34 0 0 1 34 34 h 0 a 34 34 0 0 1 -34 34 H 34 A 34 34 0 0 1 0 34 H 0 A 34 34 0 0 1 34 0 Z" />
        <path class="arrow-circle-cls-2" d="M 34.37 68 H 34 A 34 34 0 0 1 34 0 h 0.4 a 34 34 0 0 1 0 68 Z M 34 2 a 32 32 0 0 0 0 64 h 0.4 A 32 32 0 0 0 34.37 2 Z" />
      </g>
      <g id="Group_119" data-name="Group 119">
        <g id="Line_1" data-name="Line 1">
          <path class="arrow-circle-cls-2" d="M 46.47 35 H 20.27 a 1 1 0 1 1 0 -2 h 26.2 a 1 1 0 0 1 0 2 Z" />
        </g>
        <g id="Line_2" data-name="Line 2">
          <path class="arrow-circle-cls-2" d="M 47.69 35 a 1 1 0 0 1 -0.62 -0.22 L 34.88 25 a 1 1 0 0 1 -0.16 -1.4 a 1 1 0 0 1 1.41 -0.16 l 12.19 9.75 a 1 1 0 0 1 0.15 1.41 A 1 1 0 0 1 47.69 35 Z" />
        </g>
        <g id="Line_3" data-name="Line 3">
          <path class="arrow-circle-cls-2" d="M 35.5 44.73 a 1 1 0 0 1 -0.78 -0.38 a 1 1 0 0 1 0.16 -1.41 l 12.19 -9.75 a 1 1 0 0 1 1.4 0.16 a 1 1 0 0 1 -0.15 1.4 L 36.13 44.51 A 1.07 1.07 0 0 1 35.5 44.73 Z" />
        </g>
      </g>
    </g>
  </g>
</svg>